…
model_compare %>%   pivot_longer(
                        cols = c(glmnet, rf,lm , xgb),
                         names_to = "model",
                         values_to = "prediction") %>%
        select(-.config)
```

```
## # A tibble: 6,956 × 3
##    Global_Sales model  prediction
##           <dbl> <chr>       <dbl>
##  1         17.2 glmnet       14.9
##  2         17.2 rf           15.2
##  3         17.2 lm           14.9
##  4         17.2 xgb          15.8
##  5         16.8 glmnet       14.2
##  6         16.8 rf           13.6
##  7         16.8 lm           14.2
##  8         16.8 xgb          13.6
##  9         16.6 glmnet       15.2
## 10         16.6 rf           15.2
## # … with 6,946 more rows
```
…
